<svg width="183" height="32" viewBox="0 0 183 32" fill="none" xmlns="http://www.w3.org/2000/svg">
<g clip-path="url(#clip0)">
<path d="M15.0713 7.91111C14.6008 7.23376 13.9558 6.69627 13.2047 6.35556C12.3891 5.93012 11.4799 5.71617 10.5602 5.73333C9.7568 5.70623 8.95807 5.86598 8.22688 6.2C7.49787 6.42655 6.84973 6.85865 6.36022 7.44444C5.77442 7.93395 5.34232 8.5821 5.11577 9.31111C4.79727 10.1017 4.63866 10.9477 4.64911 11.8C4.63866 12.6523 4.79727 13.4982 5.11577 14.2889C5.34232 15.0179 5.77442 15.666 6.36022 16.1556C6.91936 16.658 7.54806 17.0771 8.22688 17.4C8.96754 17.7037 9.75971 17.8622 10.5602 17.8667C11.5936 17.8486 12.6074 17.5818 13.5158 17.0889C14.3704 16.6235 15.0726 15.9213 15.538 15.0667L19.2713 16C18.8047 16.7778 18.338 17.5556 17.8713 18.1778C17.2707 18.8296 16.5914 19.4044 15.8491 19.8889C15.0632 20.3446 14.2283 20.7099 13.3602 20.9778C12.4582 21.2837 11.5126 21.4413 10.5602 21.4444C9.29257 21.415 8.03555 21.2055 6.82688 20.8222C5.65034 20.3919 4.58665 19.7005 3.71577 18.8C2.78232 17.9567 2.08525 16.8843 1.69355 15.6889C1.19688 14.3974 0.933532 13.028 0.915771 11.6444C0.933478 10.3113 1.19716 8.99294 1.69355 7.75556C2.1819 6.60898 2.86619 5.55622 3.71577 4.64444C4.55905 3.71099 5.63146 3.01392 6.82688 2.62222C8.0415 2.26422 9.29515 2.05528 10.5602 2C11.4497 2.01759 12.3354 2.12179 13.2047 2.31111L15.538 3.24444C16.3094 3.62238 16.9971 4.15135 17.5602 4.8C18.1631 5.4048 18.6858 6.08441 19.1158 6.82222L15.0713 7.91111Z" fill="#999999"/>
<path d="M22.0713 11.8C22.089 10.4669 22.3527 9.14849 22.8491 7.91111C23.3374 6.76454 24.0217 5.71177 24.8713 4.8C25.7146 3.86655 26.787 3.16948 27.9824 2.77778C29.1702 2.29691 30.4347 2.03346 31.7157 2C33.0002 2.00142 34.2708 2.26612 35.4491 2.77778C36.6256 3.20806 37.6893 3.89946 38.5602 4.8C39.4936 5.64328 40.1907 6.71569 40.5824 7.91111C41.0938 9.14396 41.3581 10.4653 41.3602 11.8C41.3425 13.1331 41.0788 14.4515 40.5824 15.6889C40.094 16.8355 39.4098 17.8882 38.5602 18.8C37.6484 19.6496 36.5956 20.3339 35.4491 20.8222C34.2528 21.255 32.9877 21.4659 31.7157 21.4444C30.4481 21.415 29.1911 21.2055 27.9824 20.8222C26.8059 20.3919 25.7422 19.7005 24.8713 18.8C23.9378 17.9567 23.2408 16.8843 22.8491 15.6889C22.3527 14.4515 22.089 13.1331 22.0713 11.8ZM25.9602 11.8C25.9497 12.6523 26.1083 13.4983 26.4268 14.2889C26.6534 15.0179 27.0855 15.666 27.6713 16.1556C28.2032 16.692 28.8382 17.1153 29.538 17.4C30.2786 17.7037 31.0708 17.8622 31.8713 17.8667C32.6733 17.8775 33.4685 17.7185 34.2046 17.4C34.9044 17.1153 35.5394 16.692 36.0713 16.1556C36.5737 15.5964 36.9928 14.9677 37.3157 14.2889C37.6342 13.4983 37.7928 12.6523 37.7824 11.8C37.7928 10.9477 37.6342 10.1018 37.3157 9.31111C37.0892 8.5821 36.6571 7.93395 36.0713 7.44444C35.5394 6.90796 34.9044 6.48466 34.2046 6.2C33.4653 5.89194 32.6722 5.73333 31.8713 5.73333C31.0703 5.73333 30.2773 5.89194 29.538 6.2C28.8089 6.42655 28.1608 6.85865 27.6713 7.44444C27.1689 8.00359 26.7497 8.63229 26.4268 9.31111C26.0782 10.0926 25.9183 10.9452 25.9602 11.8Z" fill="#999999"/>
<path d="M53.8047 2.31113C55.0857 2.34459 56.3502 2.60804 57.538 3.0889C58.6768 3.52319 59.73 4.15511 60.6491 4.95557C61.5453 5.76883 62.238 6.78119 62.6713 7.91113C63.1828 9.14398 63.447 10.4653 63.4491 11.8C63.4477 13.0845 63.183 14.3551 62.6713 15.5333C62.1813 16.6326 61.4962 17.6339 60.6491 18.4889C59.7869 19.2874 58.785 19.9202 57.6936 20.3556C56.4973 20.7883 55.2322 20.9992 53.9602 20.9778H45.8713V2.31113H53.8047ZM53.8047 17.5556C54.5549 17.5505 55.296 17.3916 55.9825 17.0889C56.6372 16.7848 57.2621 16.4203 57.8491 16C58.3856 15.4681 58.8089 14.8331 59.0936 14.1333C59.4121 13.3427 59.5707 12.4968 59.5602 11.6445C59.5707 10.7921 59.4121 9.94621 59.0936 9.15557C58.806 8.4573 58.3831 7.82288 57.8491 7.28891C57.3151 6.75494 56.6807 6.33199 55.9825 6.04446C55.2716 5.85382 54.5404 5.74936 53.8047 5.73335H49.4491V17.5556H53.8047Z" fill="#999999"/>
<path d="M173.582 2.31113C174.863 2.34459 176.128 2.60804 177.316 3.0889C178.454 3.52319 179.508 4.15511 180.427 4.95557C181.323 5.76883 182.016 6.78119 182.449 7.91113C182.96 9.14398 183.225 10.4653 183.227 11.8C183.225 13.0845 182.961 14.3551 182.449 15.5333C181.959 16.6326 181.274 17.6339 180.427 18.4889C179.565 19.2874 178.563 19.9202 177.471 20.3556C176.275 20.7883 175.01 20.9992 173.738 20.9778H165.649V2.31113H173.582ZM173.582 17.5556C174.332 17.5505 175.074 17.3916 175.76 17.0889C176.415 16.7848 177.04 16.4203 177.627 16C178.163 15.4681 178.587 14.8331 178.871 14.1333C179.19 13.3427 179.348 12.4968 179.338 11.6445C179.348 10.7921 179.19 9.94621 178.871 9.15557C178.584 8.4573 178.161 7.82288 177.627 7.28891C177.093 6.75494 176.458 6.33199 175.76 6.04446C175.049 5.85382 174.318 5.74936 173.582 5.73335H169.227V17.5556H173.582Z" fill="#999999"/>
<path d="M80.8714 17.5556V20.9778H67.4937V2.31113H80.7159V5.73335H71.227V9.77779H78.6937V13.0445H71.227V17.5556H80.8714Z" fill="#999999"/>
<path d="M101.56 5.73335L92.538 16C92.1319 16.375 91.7669 16.7922 91.4491 17.2445C91.138 17.5556 90.9824 17.7111 90.9824 17.8667H101.405V21.2889H86.0046V17.8667L95.338 7.60002C95.5301 7.42275 95.6883 7.21189 95.8046 6.97779L96.2713 6.51113L96.738 6.04446L96.8935 5.8889H86.1602V2.31113H101.56V5.73335Z" fill="#999999"/>
<path d="M117.582 17.5556H109.494L108.094 21.1333H104.049L111.671 2.46667H115.249L122.871 21.1333H118.827L117.582 17.5556ZM116.338 14.1333L114.471 9.46668C114.316 9.15556 114.316 8.84445 114.16 8.6889C114.005 8.37779 114.005 8.06668 113.849 7.91112C113.725 7.7286 113.67 7.50817 113.694 7.2889L113.538 6.97779L113.382 7.2889C113.382 7.44445 113.227 7.60001 113.227 7.91112C113.071 8.06668 113.071 8.22223 112.916 8.53334C112.76 8.84445 112.76 9.15556 112.605 9.31112L110.738 13.9778H116.338V14.1333Z" fill="#999999"/>
<path d="M140.294 2.31113L132.827 20.9778H128.938L121.471 2.31113H125.36L129.716 13.6667C130.027 14.6 130.338 15.3778 130.494 16C130.567 16.3206 130.671 16.6332 130.805 16.9334C130.939 16.6332 131.043 16.3206 131.116 16C131.384 15.1549 131.696 14.3242 132.049 13.5111L136.249 2.31113H140.294Z" fill="#999999"/>
<path d="M141.849 11.8C141.851 10.4653 142.115 9.14396 142.627 7.91111C143.115 6.76454 143.8 5.71177 144.649 4.8C146.5 3.04335 148.942 2.0443 151.494 2C152.778 2.00142 154.049 2.26612 155.227 2.77778C156.403 3.20806 157.467 3.89946 158.338 4.8C159.271 5.64328 159.969 6.71569 160.36 7.91111C160.857 9.14849 161.12 10.4669 161.138 11.8C161.136 13.1347 160.872 14.456 160.36 15.6889C159.872 16.8355 159.188 17.8882 158.338 18.8C157.426 19.6496 156.373 20.3339 155.227 20.8222C154.031 21.255 152.766 21.4659 151.494 21.4444C150.226 21.415 148.969 21.2055 147.76 20.8222C146.584 20.3919 145.52 19.7005 144.649 18.8C143.716 17.9567 143.019 16.8843 142.627 15.6889C142.131 14.4515 141.867 13.1331 141.849 11.8ZM145.738 11.6444C145.728 12.4968 145.886 13.3427 146.205 14.1333C146.431 14.8623 146.863 15.5105 147.449 16C147.981 16.5365 148.616 16.9598 149.316 17.2444C150.056 17.5482 150.849 17.7066 151.649 17.7111C152.451 17.722 153.246 17.5629 153.982 17.2444C154.682 16.9598 155.317 16.5365 155.849 16C156.352 15.4409 156.771 14.8122 157.094 14.1333C157.412 13.3427 157.571 12.4968 157.56 11.6444C157.571 10.7921 157.412 9.94618 157.094 9.15556C156.867 8.42655 156.435 7.7784 155.849 7.28889C155.317 6.75241 154.682 6.3291 153.982 6.04444C153.243 5.73638 152.45 5.57778 151.649 5.57778C150.848 5.57778 150.055 5.73638 149.316 6.04444C148.587 6.27099 147.939 6.70309 147.449 7.28889C146.947 7.84804 146.528 8.47673 146.205 9.15556C145.886 9.94618 145.728 10.7921 145.738 11.6444Z" fill="#999999"/>
<path d="M0.915771 28.4445H182.916" stroke="#999999" stroke-width="2" stroke-miterlimit="10"/>
</g>
<defs>
<clipPath id="clip0">
<rect x="0.915771" width="182" height="32" fill="white"/>
</clipPath>
</defs>
</svg>
