<svg width="91" height="32" viewBox="0 0 91 32" fill="none" xmlns="http://www.w3.org/2000/svg">
<g clip-path="url(#clip0)">
<path d="M19.2123 11.2316H23.8498V6.10112C23.8498 4.66828 23.1719 3.94416 21.7852 3.94416H21.2614C19.8902 3.94416 19.1969 4.66828 19.1969 6.10112V11.2316H19.2123ZM19.2123 14.5133L19.2277 20.1522C19.2277 21.585 19.921 22.2937 21.2922 22.2937H21.8931C23.2643 22.2937 23.9576 21.585 23.9576 20.1522V17.3789H27.116V20.0135C27.116 23.6341 25.3596 25.4829 21.8777 25.4829H21.1844C17.7024 25.4829 15.946 23.6495 15.946 20.4449V6.65577C15.946 2.60377 17.7024 0.770355 21.1844 0.770355H21.8777C25.3596 0.770355 27.116 2.60377 27.116 6.22438L27.1006 14.4978H19.2123V14.5133Z" fill="#999999"/>
<path d="M32.4931 20.9995C33.3867 21.8007 34.4189 22.2475 35.4974 22.2475C36.6991 22.2475 37.3924 21.662 37.3924 20.2754V5.94706C37.3924 4.56044 36.6991 3.97498 35.4974 3.97498C34.4189 3.97498 33.3867 4.42178 32.4931 5.22294V20.9995ZM29.2268 1.04768H32.4931V2.61918C33.2634 1.7718 34.5884 0.785767 36.4834 0.785767C39.2721 0.785767 40.6433 2.71162 40.6433 5.57729V20.7068C40.6433 23.5725 39.2721 25.4983 36.4834 25.4983C34.5884 25.4983 33.2634 24.5585 32.4931 23.7574V31.5532H29.2268V1.04768Z" fill="#999999"/>
<path d="M50.4265 21.1382V13.1729L47.4684 14.3438C46.2667 14.8368 45.8815 15.4685 45.8815 16.8551V20.5219C45.8815 21.6928 46.4362 22.2629 47.4684 22.2629C48.4545 22.2629 49.3635 21.9085 50.4265 21.1382ZM42.6153 16.7935C42.6153 13.7891 43.5551 12.5874 46.051 11.6938L50.4265 10.1223V6.10113C50.4265 4.66829 49.7332 3.91335 48.362 3.91335H47.8382C46.467 3.91335 45.7737 4.66829 45.7737 6.10113V9.52144H42.5999V6.23979C42.5999 2.61918 44.3562 0.785767 47.8382 0.785767H48.4545C51.9364 0.785767 53.6928 2.61918 53.6928 6.23979V25.221H50.4265V23.6957C49.5329 24.5893 48.3158 25.4829 46.4362 25.4829C43.817 25.4829 42.6153 23.9114 42.6153 21.2306V16.7935Z" fill="#999999"/>
<path d="M66.881 25.221H63.6147V5.74676C63.6147 4.54503 63.0601 4.00579 62.074 4.00579C61.1804 4.00579 60.2252 4.36015 59.0697 5.20752V25.221H55.8035V1.04768H59.0697V2.61918C60.0249 1.67936 61.2575 0.770355 63.0601 0.770355C64.7394 0.770355 65.8487 1.49448 66.4496 2.74243C67.6205 1.71017 68.9917 0.770355 70.8713 0.770355C73.3981 0.770355 74.6922 2.38807 74.6922 5.02264V25.2056H71.426V5.74676C71.426 4.54503 70.8713 4.00579 69.8853 4.00579C68.9917 4.00579 68.0365 4.36015 66.881 5.20752V25.221Z" fill="#999999"/>
<path d="M3.3894 11.586V14.8522L11.7707 23.0641V18.519L6.28589 13.1729L11.7707 7.71884V3.26627L3.3894 11.586Z" fill="#999999"/>
<path d="M78.8367 7.71884L84.3215 13.1729L78.8367 18.5344V23.0641L87.218 14.8522V11.586L78.8367 3.26627V7.71884Z" fill="#999999"/>
</g>
<defs>
<clipPath id="clip0">
<rect width="90.9157" height="32" fill="white"/>
</clipPath>
</defs>
</svg>
