<svg width="164" height="30" viewBox="0 0 164 30" fill="none" xmlns="http://www.w3.org/2000/svg">
<path d="M43.688 3.025H34.79V26.753H40.163V19.295H43.689C48.323 19.295 51.916 15.669 51.916 11.16C51.916 6.652 48.323 3.025 43.689 3.025H43.688ZM43.688 14.211H40.162V8.11H43.688C45.334 8.11 46.542 9.432 46.542 11.16C46.542 12.89 45.334 14.211 43.688 14.211ZM65.612 9.805V19.058C65.612 21.465 64.335 22.549 62.488 22.549C60.877 22.549 59.567 21.567 59.567 19.465V9.805H54.53V20.21C54.53 24.786 57.418 27.226 60.81 27.226C63.026 27.226 64.705 26.413 65.612 25.158V26.752H70.649V9.805H65.612ZM79.716 12.821V9.805H74.679V26.752H79.716V19.092C79.716 15.736 82.671 14.889 84.753 15.228V9.466C82.638 9.466 80.388 10.55 79.716 12.821ZM92.48 12.821V9.805H87.444V26.752H92.481V19.092C92.481 15.736 95.436 14.889 97.518 15.228V9.466C95.402 9.466 93.152 10.55 92.481 12.821H92.48ZM118.678 9.805L116.26 18.889L113.641 9.805H108.94L106.32 18.889L103.902 9.805H98.529L103.902 26.752H108.604L111.29 17.702L113.977 26.752H118.678L124.051 9.805H118.678ZM130.23 20.312H142.151C142.288 19.6431 142.356 18.9618 142.353 18.279C142.353 13.16 138.726 9.33 133.823 9.33C128.517 9.33 124.891 13.228 124.891 18.279C124.891 23.329 128.45 27.227 134.193 27.227C137.383 27.227 139.868 26.041 141.513 23.736L137.484 21.397C136.812 22.143 135.637 22.685 134.26 22.685C132.413 22.685 130.868 22.075 130.23 20.312ZM130.129 16.516C130.6 14.787 131.876 13.838 133.79 13.838C135.301 13.838 136.812 14.55 137.349 16.516H130.129ZM155.587 9.33C153.337 9.33 151.691 10.11 150.583 11.398V3.025H145.546V26.753H150.583V25.159C151.691 26.448 153.337 27.227 155.587 27.227C159.986 27.227 163.613 23.329 163.613 18.279C163.613 13.229 159.986 9.33 155.587 9.33ZM154.579 22.414C152.262 22.414 150.583 20.821 150.583 18.279C150.583 15.736 152.262 14.143 154.579 14.143C156.896 14.143 158.575 15.736 158.575 18.279C158.575 20.821 156.896 22.414 154.579 22.414ZM16.049 30L29.497 0H24.542L11.094 30H16.049ZM4.887 30L18.15 0H13.263L0 30H4.887Z" fill="#999999"/>
</svg>
