<svg width="98" height="84" viewBox="0 0 98 84" fill="none" xmlns="http://www.w3.org/2000/svg">
<path opacity="0.45" d="M53.44 0.219997H24.4L0.200001 42.02L24.4 83.82H53.44L29.24 42.02L53.44 0.219997ZM97.44 0.219997H68.4L44.2 42.02L68.4 83.82H97.44L73.24 42.02L97.44 0.219997Z" fill="#FBE07E"/>
</svg>
