<svg width="160" height="161" viewBox="0 0 160 161" fill="none" xmlns="http://www.w3.org/2000/svg">
<path d="M80 0.96875L85.6273 22.0368L95.1401 2.41445L96.6786 24.1668L109.733 6.69932L107.127 28.3497L123.251 13.6685L116.595 34.4344L135.206 23.07L124.74 42.201L145.166 34.5642L131.269 51.3688L152.771 47.7355L135.944 61.6063L157.745 62.108L138.597 72.5437L159.909 77.1622L139.133 83.7856L159.186 92.3539L137.531 94.9257L155.6 107.134L133.85 105.561L149.282 120.969L128.223 115.308L140.46 133.358L120.853 123.814L129.453 143.853L112.006 130.771L116.658 152.076L102.002 135.928L102.539 157.728L91.2037 139.099L87.6045 160.607L80 140.169L72.3955 160.607L68.7963 139.099L57.4614 157.728L57.9976 135.928L43.3419 152.076L47.9941 130.771L30.5473 143.853L39.1473 123.814L19.54 133.358L31.7771 115.308L10.718 120.969L26.1498 105.561L4.39993 107.134L22.4688 94.9257L0.814285 92.3539L20.8671 83.7856L0.0906143 77.1622L21.4026 72.5437L2.25507 62.108L24.056 61.6063L7.22944 47.7355L28.7313 51.3688L14.8339 34.5642L35.2596 42.201L24.7937 23.07L43.405 34.4344L36.7487 13.6685L52.873 28.3497L50.267 6.69932L63.3214 24.1668L64.8599 2.41445L74.3727 22.0368L80 0.96875Z" fill="#9B51E0"/>
</svg>
