<svg width="160" height="161" viewBox="0 0 160 161" fill="none" xmlns="http://www.w3.org/2000/svg">
<path d="M79.9688 0.96875L83.1836 29.8698L89.9954 1.59957L89.5627 30.6756L99.8639 3.48209L95.7904 32.2747L109.419 6.58663L101.769 34.6416L118.509 10.8642L107.403 37.7392L126.992 16.2474L112.605 41.5185L134.733 22.6513L117.292 45.9199L141.61 29.9748L121.39 50.8741L147.515 38.1026L124.836 56.303L152.355 46.9064L127.573 62.1208L156.053 56.2474L129.56 68.2358L158.552 65.9782L130.765 74.5517L159.811 75.9455L131.169 80.9688L159.811 85.992L130.765 87.3858L158.552 95.9593L129.56 93.7017L156.053 105.69L127.573 99.8167L152.355 115.031L124.836 105.635L147.515 123.835L121.39 111.063L141.61 131.963L117.292 116.018L134.733 139.286L112.605 120.419L126.992 145.69L107.403 124.198L118.509 151.073L101.769 127.296L109.419 155.351L95.7904 129.663L99.8639 158.455L89.5627 131.262L89.9954 160.338L83.1836 132.068L79.9688 160.969L76.7539 132.068L69.9421 160.338L70.3748 131.262L60.0736 158.455L64.1471 129.663L50.5188 155.351L58.1688 127.296L41.4285 151.073L52.5344 124.198L32.9459 145.69L47.3326 120.419L25.205 139.286L42.6456 116.018L18.3277 131.963L38.5471 111.063L12.4225 123.835L35.1018 105.635L7.58259 115.031L32.3642 99.8167L3.88423 105.69L30.3773 93.7017L1.38577 95.9593L29.1725 87.3858L0.12661 85.992L28.7688 80.9688L0.12661 75.9455L29.1725 74.5517L1.38577 65.9782L30.3773 68.2358L3.88423 56.2474L32.3642 62.1208L7.58259 46.9064L35.1018 56.303L12.4225 38.1026L38.5471 50.8741L18.3277 29.9748L42.6456 45.9199L25.205 22.6513L47.3326 41.5185L32.9459 16.2474L52.5344 37.7392L41.4285 10.8642L58.1688 34.6416L50.5188 6.58663L64.1471 32.2747L60.0736 3.48209L70.3748 30.6756L69.9421 1.59957L76.7539 29.8698L79.9688 0.96875Z" fill="#9B51E0"/>
</svg>
